dump.vcd
$date
	Sun Aug 17 12:58:42 2025
$end
$version
	QuestaSim Version 2024.3_1
$end
$timescale
	1ns
$end

$scope module tb $end
$var reg 1 ! clk $end
$var reg 1 " rst $end

$scope module axi_assertion_dut $end
$var wire 1 # aclk $end
$var wire 1 $ araddr [31] $end
$var wire 1 % araddr [30] $end
$var wire 1 & araddr [29] $end
$var wire 1 ' araddr [28] $end
$var wire 1 ( araddr [27] $end
$var wire 1 ) araddr [26] $end
$var wire 1 * araddr [25] $end
$var wire 1 + araddr [24] $end
$var wire 1 , araddr [23] $end
$var wire 1 - araddr [22] $end
$var wire 1 . araddr [21] $end
$var wire 1 / araddr [20] $end
$var wire 1 0 araddr [19] $end
$var wire 1 1 araddr [18] $end
$var wire 1 2 araddr [17] $end
$var wire 1 3 araddr [16] $end
$var wire 1 4 araddr [15] $end
$var wire 1 5 araddr [14] $end
$var wire 1 6 araddr [13] $end
$var wire 1 7 araddr [12] $end
$var wire 1 8 araddr [11] $end
$var wire 1 9 araddr [10] $end
$var wire 1 : araddr [9] $end
$var wire 1 ; araddr [8] $end
$var wire 1 < araddr [7] $end
$var wire 1 = araddr [6] $end
$var wire 1 > araddr [5] $end
$var wire 1 ? araddr [4] $end
$var wire 1 @ araddr [3] $end
$var wire 1 A araddr [2] $end
$var wire 1 B araddr [1] $end
$var wire 1 C araddr [0] $end
$var wire 1 D arburst [1] $end
$var wire 1 E arburst [0] $end
$var wire 1 F arcache [1] $end
$var wire 1 G arcache [0] $end
$var wire 1 H arid [3] $end
$var wire 1 I arid [2] $end
$var wire 1 J arid [1] $end
$var wire 1 K arid [0] $end
$var wire 1 L arlen [3] $end
$var wire 1 M arlen [2] $end
$var wire 1 N arlen [1] $end
$var wire 1 O arlen [0] $end
$var wire 1 P arlock [1] $end
$var wire 1 Q arlock [0] $end
$var wire 1 R arprot [1] $end
$var wire 1 S arprot [0] $end
$var wire 1 T arready $end
$var wire 1 U arsize [2] $end
$var wire 1 V arsize [1] $end
$var wire 1 W arsize [0] $end
$var wire 1 X arst $end
$var wire 1 Y arvalid $end
$var wire 1 Z awaddr [31] $end
$var wire 1 [ awaddr [30] $end
$var wire 1 \ awaddr [29] $end
$var wire 1 ] awaddr [28] $end
$var wire 1 ^ awaddr [27] $end
$var wire 1 _ awaddr [26] $end
$var wire 1 ` awaddr [25] $end
$var wire 1 a awaddr [24] $end
$var wire 1 b awaddr [23] $end
$var wire 1 c awaddr [22] $end
$var wire 1 d awaddr [21] $end
$var wire 1 e awaddr [20] $end
$var wire 1 f awaddr [19] $end
$var wire 1 g awaddr [18] $end
$var wire 1 h awaddr [17] $end
$var wire 1 i awaddr [16] $end
$var wire 1 j awaddr [15] $end
$var wire 1 k awaddr [14] $end
$var wire 1 l awaddr [13] $end
$var wire 1 m awaddr [12] $end
$var wire 1 n awaddr [11] $end
$var wire 1 o awaddr [10] $end
$var wire 1 p awaddr [9] $end
$var wire 1 q awaddr [8] $end
$var wire 1 r awaddr [7] $end
$var wire 1 s awaddr [6] $end
$var wire 1 t awaddr [5] $end
$var wire 1 u awaddr [4] $end
$var wire 1 v awaddr [3] $end
$var wire 1 w awaddr [2] $end
$var wire 1 x awaddr [1] $end
$var wire 1 y awaddr [0] $end
$var wire 1 z awburst [1] $end
$var wire 1 { awburst [0] $end
$var wire 1 | awcache [1] $end
$var wire 1 } awcache [0] $end
$var wire 1 ~ awid [3] $end
$var wire 1 !! awid [2] $end
$var wire 1 "! awid [1] $end
$var wire 1 #! awid [0] $end
$var wire 1 $! awlen [3] $end
$var wire 1 %! awlen [2] $end
$var wire 1 &! awlen [1] $end
$var wire 1 '! awlen [0] $end
$var wire 1 (! awlock [1] $end
$var wire 1 )! awlock [0] $end
$var wire 1 *! awprot [1] $end
$var wire 1 +! awprot [0] $end
$var wire 1 ,! awready $end
$var wire 1 -! awsize [2] $end
$var wire 1 .! awsize [1] $end
$var wire 1 /! awsize [0] $end
$var wire 1 0! awvalid $end
$var wire 1 1! bid [3] $end
$var wire 1 2! bid [2] $end
$var wire 1 3! bid [1] $end
$var wire 1 4! bid [0] $end
$var wire 1 5! bready $end
$var wire 1 6! bresp [1] $end
$var wire 1 7! bresp [0] $end
$var wire 1 8! bvalid $end
$var wire 1 9! rdata [63] $end
$var wire 1 :! rdata [62] $end
$var wire 1 ;! rdata [61] $end
$var wire 1 <! rdata [60] $end
$var wire 1 =! rdata [59] $end
$var wire 1 >! rdata [58] $end
$var wire 1 ?! rdata [57] $end
$var wire 1 @! rdata [56] $end
$var wire 1 A! rdata [55] $end
$var wire 1 B! rdata [54] $end
$var wire 1 C! rdata [53] $end
$var wire 1 D! rdata [52] $end
$var wire 1 E! rdata [51] $end
$var wire 1 F! rdata [50] $end
$var wire 1 G! rdata [49] $end
$var wire 1 H! rdata [48] $end
$var wire 1 I! rdata [47] $end
$var wire 1 J! rdata [46] $end
$var wire 1 K! rdata [45] $end
$var wire 1 L! rdata [44] $end
$var wire 1 M! rdata [43] $end
$var wire 1 N! rdata [42] $end
$var wire 1 O! rdata [41] $end
$var wire 1 P! rdata [40] $end
$var wire 1 Q! rdata [39] $end
$var wire 1 R! rdata [38] $end
$var wire 1 S! rdata [37] $end
$var wire 1 T! rdata [36] $end
$var wire 1 U! rdata [35] $end
$var wire 1 V! rdata [34] $end
$var wire 1 W! rdata [33] $end
$var wire 1 X! rdata [32] $end
$var wire 1 Y! rdata [31] $end
$var wire 1 Z! rdata [30] $end
$var wire 1 [! rdata [29] $end
$var wire 1 \! rdata [28] $end
$var wire 1 ]! rdata [27] $end
$var wire 1 ^! rdata [26] $end
$var wire 1 _! rdata [25] $end
$var wire 1 `! rdata [24] $end
$var wire 1 a! rdata [23] $end
$var wire 1 b! rdata [22] $end
$var wire 1 c! rdata [21] $end
$var wire 1 d! rdata [20] $end
$var wire 1 e! rdata [19] $end
$var wire 1 f! rdata [18] $end
$var wire 1 g! rdata [17] $end
$var wire 1 h! rdata [16] $end
$var wire 1 i! rdata [15] $end
$var wire 1 j! rdata [14] $end
$var wire 1 k! rdata [13] $end
$var wire 1 l! rdata [12] $end
$var wire 1 m! rdata [11] $end
$var wire 1 n! rdata [10] $end
$var wire 1 o! rdata [9] $end
$var wire 1 p! rdata [8] $end
$var wire 1 q! rdata [7] $end
$var wire 1 r! rdata [6] $end
$var wire 1 s! rdata [5] $end
$var wire 1 t! rdata [4] $end
$var wire 1 u! rdata [3] $end
$var wire 1 v! rdata [2] $end
$var wire 1 w! rdata [1] $end
$var wire 1 x! rdata [0] $end
$var wire 1 y! rid [3] $end
$var wire 1 z! rid [2] $end
$var wire 1 {! rid [1] $end
$var wire 1 |! rid [0] $end
$var wire 1 }! rlast $end
$var wire 1 ~! rready $end
$var wire 1 !" rresp [1] $end
$var wire 1 "" rresp [0] $end
$var wire 1 #" rvalid $end
$var wire 1 $" wdata [63] $end
$var wire 1 %" wdata [62] $end
$var wire 1 &" wdata [61] $end
$var wire 1 '" wdata [60] $end
$var wire 1 (" wdata [59] $end
$var wire 1 )" wdata [58] $end
$var wire 1 *" wdata [57] $end
$var wire 1 +" wdata [56] $end
$var wire 1 ," wdata [55] $end
$var wire 1 -" wdata [54] $end
$var wire 1 ." wdata [53] $end
$var wire 1 /" wdata [52] $end
$var wire 1 0" wdata [51] $end
$var wire 1 1" wdata [50] $end
$var wire 1 2" wdata [49] $end
$var wire 1 3" wdata [48] $end
$var wire 1 4" wdata [47] $end
$var wire 1 5" wdata [46] $end
$var wire 1 6" wdata [45] $end
$var wire 1 7" wdata [44] $end
$var wire 1 8" wdata [43] $end
$var wire 1 9" wdata [42] $end
$var wire 1 :" wdata [41] $end
$var wire 1 ;" wdata [40] $end
$var wire 1 <" wdata [39] $end
$var wire 1 =" wdata [38] $end
$var wire 1 >" wdata [37] $end
$var wire 1 ?" wdata [36] $end
$var wire 1 @" wdata [35] $end
$var wire 1 A" wdata [34] $end
$var wire 1 B" wdata [33] $end
$var wire 1 C" wdata [32] $end
$var wire 1 D" wdata [31] $end
$var wire 1 E" wdata [30] $end
$var wire 1 F" wdata [29] $end
$var wire 1 G" wdata [28] $end
$var wire 1 H" wdata [27] $end
$var wire 1 I" wdata [26] $end
$var wire 1 J" wdata [25] $end
$var wire 1 K" wdata [24] $end
$var wire 1 L" wdata [23] $end
$var wire 1 M" wdata [22] $end
$var wire 1 N" wdata [21] $end
$var wire 1 O" wdata [20] $end
$var wire 1 P" wdata [19] $end
$var wire 1 Q" wdata [18] $end
$var wire 1 R" wdata [17] $end
$var wire 1 S" wdata [16] $end
$var wire 1 T" wdata [15] $end
$var wire 1 U" wdata [14] $end
$var wire 1 V" wdata [13] $end
$var wire 1 W" wdata [12] $end
$var wire 1 X" wdata [11] $end
$var wire 1 Y" wdata [10] $end
$var wire 1 Z" wdata [9] $end
$var wire 1 [" wdata [8] $end
$var wire 1 \" wdata [7] $end
$var wire 1 ]" wdata [6] $end
$var wire 1 ^" wdata [5] $end
$var wire 1 _" wdata [4] $end
$var wire 1 `" wdata [3] $end
$var wire 1 a" wdata [2] $end
$var wire 1 b" wdata [1] $end
$var wire 1 c" wdata [0] $end
$var wire 1 d" wid [3] $end
$var wire 1 e" wid [2] $end
$var wire 1 f" wid [1] $end
$var wire 1 g" wid [0] $end
$var wire 1 h" wlast $end
$var wire 1 i" wready $end
$var wire 1 j" wstrb [7] $end
$var wire 1 k" wstrb [6] $end
$var wire 1 l" wstrb [5] $end
$var wire 1 m" wstrb [4] $end
$var wire 1 n" wstrb [3] $end
$var wire 1 o" wstrb [2] $end
$var wire 1 p" wstrb [1] $end
$var wire 1 q" wstrb [0] $end
$var wire 1 r" wvalid $end

$scope begin AR_ADDR_A $end
$upscope $end

$scope begin AR_BURST_A $end
$upscope $end

$scope begin AR_CACHE_A $end
$upscope $end

$scope begin AR_ID_A $end
$upscope $end

$scope begin AR_LEN_A $end
$upscope $end

$scope begin AR_LOCK_A $end
$upscope $end

$scope begin AR_PROT_A $end
$upscope $end

$scope begin AR_SIZE_A $end
$upscope $end

$scope begin AW_ADDR_A $end
$upscope $end

$scope begin AW_BURST_A $end
$upscope $end

$scope begin AW_CACHE_A $end
$upscope $end

$scope begin AW_ID_A $end
$upscope $end

$scope begin AW_LEN_A $end
$upscope $end

$scope begin AW_LOCK_A $end
$upscope $end

$scope begin AW_PROT_A $end
$upscope $end

$scope begin AW_SIZE_A $end
$upscope $end

$scope begin B_ID_A $end
$upscope $end

$scope begin B_RESP_A $end
$upscope $end

$scope begin R_ADDR $end
$upscope $end

$scope begin R_DATA $end
$upscope $end

$scope begin R_DATA_A $end
$upscope $end

$scope begin R_ID_A $end
$upscope $end

$scope begin R_LAST_A $end
$upscope $end

$scope begin R_RESP_A $end
$upscope $end

$scope begin W_ADDRE $end
$upscope $end

$scope begin W_DATA $end
$upscope $end

$scope begin W_DATA_A $end
$upscope $end

$scope begin W_ID_A $end
$upscope $end

$scope begin W_LAST_A $end
$upscope $end

$scope begin W_RESP $end
$upscope $end

$scope begin W_STROBE_A $end
$upscope $end
$upscope $end

$scope module pif $end
$var wire 1 # aclk $end
$var wire 1 X arst $end
$var reg 32 s" araddr [31:0] $end
$var reg 2 t" arburst [1:0] $end
$var reg 2 u" arcache [1:0] $end
$var reg 4 v" arid [3:0] $end
$var reg 4 w" arlen [3:0] $end
$var reg 2 x" arlock [1:0] $end
$var reg 2 y" arprot [1:0] $end
$var reg 1 z" arready $end
$var reg 3 {" arsize [2:0] $end
$var reg 1 |" arvalid $end
$var reg 32 }" awaddr [31:0] $end
$var reg 2 ~" awburst [1:0] $end
$var reg 2 !# awcache [1:0] $end
$var reg 4 "# awid [3:0] $end
$var reg 4 ## awlen [3:0] $end
$var reg 2 $# awlock [1:0] $end
$var reg 2 %# awprot [1:0] $end
$var reg 1 &# awready $end
$var reg 3 '# awsize [2:0] $end
$var reg 1 (# awvalid $end
$var reg 4 )# bid [3:0] $end
$var reg 1 *# bready $end
$var reg 2 +# bresp [1:0] $end
$var reg 1 ,# bvalid $end
$var reg 64 -# rdata [63:0] $end
$var reg 4 .# rid [3:0] $end
$var reg 1 /# rlast $end
$var reg 1 0# rready $end
$var reg 2 1# rresp [1:0] $end
$var reg 1 2# rvalid $end
$var reg 64 3# wdata [63:0] $end
$var reg 4 4# wid [3:0] $end
$var reg 1 5# wlast $end
$var reg 1 6# wready $end
$var reg 8 7# wstrb [7:0] $end
$var reg 1 8# wvalid $end

$scope begin master_cb $end
$var event 1 9# master_cb_event $end
$var reg 32 :# araddr [31:0] $end
$var reg 2 ;# arburst [1:0] $end
$var reg 2 <# arcache [1:0] $end
$var reg 4 =# arid [3:0] $end
$var reg 4 ># arlen [3:0] $end
$var reg 2 ?# arlock [1:0] $end
$var reg 2 @# arprot [1:0] $end
$var reg 1 A# arready $end
$var reg 3 B# arsize [2:0] $end
$var reg 1 C# arvalid $end
$var reg 32 D# awaddr [31:0] $end
$var reg 2 E# awburst [1:0] $end
$var reg 2 F# awcache [1:0] $end
$var reg 4 G# awid [3:0] $end
$var reg 4 H# awlen [3:0] $end
$var reg 2 I# awlock [1:0] $end
$var reg 2 J# awprot [1:0] $end
$var reg 1 K# awready $end
$var reg 3 L# awsize [2:0] $end
$var reg 1 M# awvalid $end
$var reg 4 N# bid [3:0] $end
$var reg 1 O# bready $end
$var reg 2 P# bresp [1:0] $end
$var reg 1 Q# bvalid $end
$var reg 64 R# rdata [63:0] $end
$var reg 4 S# rid [3:0] $end
$var reg 1 T# rlast $end
$var reg 1 U# rready $end
$var reg 2 V# rresp [1:0] $end
$var reg 1 W# rvalid $end
$var reg 64 X# wdata [63:0] $end
$var reg 4 Y# wid [3:0] $end
$var reg 1 Z# wlast $end
$var reg 1 [# wready $end
$var reg 8 \# wstrb [7:0] $end
$var reg 1 ]# wvalid $end
$upscope $end

$scope begin slave_cb $end
$var event 1 ^# slave_cb_event $end
$var reg 32 _# araddr [31:0] $end
$var reg 2 `# arburst [1:0] $end
$var reg 2 a# arcache [1:0] $end
$var reg 4 b# arid [3:0] $end
$var reg 4 c# arlen [3:0] $end
$var reg 2 d# arlock [1:0] $end
$var reg 2 e# arprot [1:0] $end
$var reg 1 f# arready $end
$var reg 3 g# arsize [2:0] $end
$var reg 1 h# arvalid $end
$var reg 32 i# awaddr [31:0] $end
$var reg 2 j# awburst [1:0] $end
$var reg 2 k# awcache [1:0] $end
$var reg 4 l# awid [3:0] $end
$var reg 4 m# awlen [3:0] $end
$var reg 2 n# awlock [1:0] $end
$var reg 2 o# awprot [1:0] $end
$var reg 1 p# awready $end
$var reg 3 q# awsize [2:0] $end
$var reg 1 r# awvalid $end
$var reg 4 s# bid [3:0] $end
$var reg 1 t# bready $end
$var reg 2 u# bresp [1:0] $end
$var reg 1 v# bvalid $end
$var reg 64 w# rdata [63:0] $end
$var reg 4 x# rid [3:0] $end
$var reg 1 y# rlast $end
$var reg 1 z# rready $end
$var reg 2 {# rresp [1:0] $end
$var reg 1 |# rvalid $end
$var reg 64 }# wdata [63:0] $end
$var reg 4 ~# wid [3:0] $end
$var reg 1 !$ wlast $end
$var reg 1 "$ wready $end
$var reg 8 #$ wstrb [7:0] $end
$var reg 1 $$ wvalid $end
$upscope $end
$upscope $end
$upscope $end
$enddefinitions $end
#0
$dumpvars
0""
0!"
0~!
0#"
0}!
0x!
0w!
0v!
0u!
0t!
0s!
0r!
0q!
0p!
0o!
0n!
0m!
0l!
0k!
0j!
0i!
0h!
0g!
0f!
0e!
0d!
0c!
0b!
0a!
0`!
0_!
0^!
0]!
0\!
0[!
0Z!
0Y!
0X!
0W!
0V!
0U!
0T!
0S!
0R!
0Q!
0P!
0O!
0N!
0M!
0L!
0K!
0J!
0I!
0H!
0G!
0F!
0E!
0D!
0C!
0B!
0A!
0@!
0?!
0>!
0=!
0<!
0;!
0:!
09!
0|!
0{!
0z!
0y!
0T
0Y
0S
0R
0G
0F
0Q
0P
0E
0D
0W
0V
0U
0O
0N
0M
0L
0C
0B
0A
0@
0?
0>
0=
0<
0;
0:
09
08
07
06
05
04
03
02
01
00
0/
0.
0-
0,
0+
0*
0)
0(
0'
0&
0%
0$
0K
0J
0I
0H
05!
08!
07!
06!
04!
03!
02!
01!
0i"
0r"
0h"
0q"
0p"
0o"
0n"
0m"
0l"
0k"
0j"
xc"
xb"
xa"
x`"
x_"
x^"
x]"
x\"
x["
xZ"
xY"
xX"
xW"
xV"
xU"
xT"
xS"
xR"
xQ"
xP"
xO"
xN"
xM"
xL"
xK"
xJ"
xI"
xH"
xG"
xF"
xE"
xD"
xC"
xB"
xA"
x@"
x?"
x>"
x="
x<"
x;"
x:"
x9"
x8"
x7"
x6"
x5"
x4"
x3"
x2"
x1"
x0"
x/"
x."
x-"
x,"
x+"
x*"
x)"
x("
x'"
x&"
x%"
x$"
0g"
0f"
0e"
0d"
0,!
00!
0+!
0*!
0}
0|
0)!
0(!
0{
0z
0/!
0.!
0-!
0'!
0&!
0%!
0$!
0y
0x
0w
0v
0u
0t
0s
0r
0q
0p
0o
0n
0m
0l
0k
0j
0i
0h
0g
0f
0e
0d
0c
0b
0a
0`
0_
0^
0]
0\
0[
0Z
0#!
0"!
0!!
0~
0X
0#
0!
0"
b0 s"
b0 t"
b0 u"
b0 v"
b0 w"
b0 x"
b0 y"
0z"
b0 {"
0|"
b0 }"
b0 ~"
b0 !#
b0 "#
b0 ##
b0 $#
b0 %#
0&#
b0 '#
0(#
b0 )#
0*#
b0 +#
0,#
b0 -#
b0 .#
0/#
00#
b0 1#
02#
bx 3#
b0 4#
05#
06#
b0 7#
08#
19#
bx :#
bx ;#
bx <#
bx =#
bx >#
bx ?#
bx @#
xA#
bx B#
xC#
bx D#
bx E#
bx F#
bx G#
bx H#
bx I#
bx J#
xK#
bx L#
xM#
bx N#
xO#
bx P#
xQ#
bx R#
bx S#
xT#
xU#
bx V#
xW#
bx X#
bx Y#
xZ#
x[#
bx \#
x]#
1^#
bx _#
bx `#
bx a#
bx b#
bx c#
bx d#
bx e#
xf#
bx g#
xh#
bx i#
bx j#
bx k#
bx l#
bx m#
bx n#
bx o#
xp#
bx q#
xr#
bx s#
xt#
bx u#
xv#
bx w#
bx x#
xy#
xz#
bx {#
x|#
bx }#
bx ~#
x!$
x"$
bx #$
x$$
$end
#5
1!
1#
0K#
0[#
b0 N#
b0 P#
0Q#
0A#
b0 S#
b0 R#
0W#
0T#
b0 V#
b0 l#
b0 i#
b0 m#
b0 q#
b0 j#
b0 n#
b0 k#
b0 o#
0r#
b0 ~#
0$$
b0 #$
0!$
0t#
b0 b#
b0 _#
b0 c#
b0 g#
b0 `#
b0 d#
b0 a#
b0 e#
0h#
0z#
19#
1^#
b11101001001010011000011001101001 D#
b11 G#
b1101 H#
b1 L#
b0 E#
b1 I#
b0 F#
b1 J#
1M#
0p#
0f#
#6
b11101001001010011000011001101001 }"
b11 "#
b1101 ##
b1 '#
b1 $#
b1 %#
1(#
1+!
1)!
1/!
1'!
1%!
1$!
1#!
1"!
1y
1v
1t
1s
1p
1o
1j
1i
1f
1d
1a
1^
1\
1[
1Z
10!
#10
0!
0#
#15
1!
1#
b11101001001010011000011001101001 i#
b11 l#
b1101 m#
b1 q#
b1 n#
b1 o#
1r#
19#
1^#
1p#
0f#
1&#
1,!
#20
0!
0#
#25
1!
1#
1K#
19#
1^#
b0 D#
b0 G#
b0 H#
b0 L#
b0 E#
b0 I#
b0 F#
b0 J#
0M#
1p#
0f#
#26
b0 }"
b0 "#
b0 ##
b0 '#
b0 $#
b0 %#
0(#
0+!
0)!
0/!
0'!
0%!
0$!
0#!
0"!
0y
0v
0t
0s
0p
0o
0j
0i
0f
0d
0a
0^
0\
0[
0Z
00!
#30
0!
0#
#35
1!
1#
b0 i#
b0 l#
b0 m#
b0 q#
b0 n#
b0 o#
0r#
19#
1^#
b1110110100001100011111110100010000111000010101101011100111110101 X#
1]#
b1 \#
b11 Y#
0Z#
0p#
0f#
0&#
0,!
#36
b1110110100001100011111110100010000111000010101101011100111110101 3#
18#
b1 7#
b11 4#
1r"
1g"
1f"
1q"
1c"
0b"
1a"
0`"
1_"
1^"
1]"
1\"
1["
0Z"
0Y"
1X"
1W"
1V"
0U"
1T"
0S"
1R"
1Q"
0P"
1O"
0N"
1M"
0L"
0K"
0J"
0I"
1H"
1G"
1F"
0E"
0D"
0C"
0B"
1A"
0@"
0?"
0>"
1="
0<"
1;"
1:"
19"
18"
17"
16"
15"
04"
03"
02"
11"
10"
0/"
0."
0-"
0,"
1+"
0*"
1)"
1("
0'"
1&"
1%"
1$"
#40
0!
0#
#45
1!
1#
0K#
b1110110100001100011111110100010000111000010101101011100111110101 }#
1$$
b1 #$
b11 ~#
19#
1^#
0p#
1"$
16#
1i"
#50
0!
0#
#55
1!
1#
1[#
19#
1^#
#60
0!
0#
#65
1!
1#
19#
1^#
b1101101110110111100000110001010010000001011001001100111111011010 X#
1]#
b1100 \#
b11 Y#
0Z#
0f#
#66
b1101101110110111100000110001010010000001011001001100111111011010 3#
b1100 7#
0q"
1o"
1n"
0c"
1b"
0a"
1`"
0^"
1Z"
1Y"
0W"
0V"
1U"
0R"
0O"
1N"
1K"
0H"
0G"
0F"
1D"
1?"
0="
09"
08"
07"
06"
05"
14"
13"
12"
00"
1/"
1."
1,"
1*"
0)"
1'"
0&"
#70
0!
0#
#75
1!
1#
b1101101110110111100000110001010010000001011001001100111111011010 }#
b1100 #$
19#
1^#
b111011110011001110001010010101000111100101011011001001101111100 X#
1]#
b110000 \#
b11 Y#
0Z#
0p#
1"$
0f#
#76
b111011110011001110001010010101000111100101011011001001101111100 3#
b110000 7#
0o"
0n"
1m"
1l"
0b"
1a"
1^"
0\"
0Y"
0X"
1W"
0U"
1S"
1P"
0M"
1L"
0K"
1I"
1H"
1G"
1F"
0D"
1B"
0A"
1@"
0?"
1>"
0:"
19"
15"
02"
01"
10"
0."
1)"
0("
1&"
0$"
#80
0!
0#
#85
1!
1#
b111011110011001110001010010101000111100101011011001001101111100 }#
b110000 #$
19#
1^#
b10101011111000110010001100110110011000110100011011110011000000 X#
1]#
b11000000 \#
b11 Y#
0Z#
0p#
1"$
0f#
#86
b10101011111000110010001100110110011000110100011011110011000000 3#
b11000000 7#
0m"
0l"
1k"
1j"
0a"
0`"
0_"
0^"
1\"
0["
0Z"
1Y"
1X"
1V"
0Q"
0P"
1O"
0N"
1M"
0I"
0F"
1D"
1C"
0B"
1A"
0>"
1="
1<"
0;"
09"
18"
03"
1."
1-"
0+"
0)"
1("
0'"
0%"
#90
0!
0#
#95
1!
1#
b10101011111000110010001100110110011000110100011011110011000000 }#
b11000000 #$
19#
1^#
b1110111100011111110111110101100101000000101010011011111000111001 X#
1]#
b11 \#
b11 Y#
0Z#
0p#
1"$
0f#
#96
b1110111100011111110111110101100101000000101010011011111000111001 3#
b11 7#
1q"
1p"
0k"
0j"
1c"
1`"
1_"
1^"
0]"
0\"
1Z"
1P"
0O"
1N"
0M"
0H"
0G"
1E"
0D"
0A"
1?"
0<"
1;"
1:"
19"
17"
13"
12"
11"
0."
0-"
0,"
1+"
1)"
1%"
1$"
#100
0!
0#
#105
1!
1#
b1110111100011111110111110101100101000000101010011011111000111001 }#
b11 #$
19#
1^#
b10000111100001101010100101100100001011101010100100000000111100 X#
1]#
b1100 \#
b11 Y#
0Z#
0p#
1"$
0f#
#106
b10000111100001101010100101100100001011101010100100000000111100 3#
b1100 7#
0q"
0p"
1o"
1n"
0c"
1a"
0Z"
0Y"
0X"
0W"
0V"
1U"
0T"
0S"
1R"
1K"
1J"
1H"
0E"
0;"
09"
07"
16"
05"
02"
01"
00"
0/"
1."
1-"
1,"
0*"
0)"
0("
0%"
0$"
#110
0!
0#
#115
1!
1#
b10000111100001101010100101100100001011101010100100000000111100 }#
b1100 #$
19#
1^#
b101000101001011001111101100011011111001000100101001110011000101 X#
1]#
b110000 \#
b11 Y#
0Z#
0p#
1"$
0f#
#116
b101000101001011001111101100011011111001000100101001110011000101 3#
b110000 7#
0o"
0n"
1m"
1l"
1c"
0`"
0_"
0^"
1]"
1\"
1Y"
1X"
1W"
0U"
1T"
0P"
1O"
0N"
0L"
0J"
1G"
1F"
1E"
1D"
0C"
1B"
1A"
0@"
0?"
1<"
19"
17"
04"
12"
10"
0."
0,"
1'"
0&"
1%"
#120
0!
0#
#125
1!
1#
b101000101001011001111101100011011111001000100101001110011000101 }#
b110000 #$
19#
1^#
b100001010101000110110010100001100101001111000011011111011110100 X#
1]#
b11000000 \#
b11 Y#
0Z#
0p#
1"$
0f#
#126
b100001010101000110110010100001100101001111000011011111011110100 3#
b11000000 7#
0m"
0l"
1k"
1j"
0c"
1_"
1^"
1Z"
1V"
1S"
0R"
0O"
1N"
1M"
1L"
0G"
0E"
0D"
1C"
0A"
0<"
1;"
0:"
09"
06"
15"
14"
03"
02"
1."
0-"
1,"
0+"
1*"
0'"
#130
0!
0#
#135
1!
1#
b100001010101000110110010100001100101001111000011011111011110100 }#
b11000000 #$
19#
1^#
b1001110100001010001010101101011110000100110001101011110110100100 X#
1]#
b11 \#
b11 Y#
0Z#
0p#
1"$
0f#
#136
b1001110100001010001010101101011110000100110001101011110110100100 3#
b11 7#
1q"
1p"
0k"
0j"
0_"
0]"
1["
0Z"
0S"
1R"
1Q"
0N"
0K"
1I"
0H"
0F"
1D"
1A"
1?"
1<"
0;"
1:"
07"
16"
05"
04"
12"
0."
0,"
1+"
0*"
1)"
1("
1'"
0%"
1$"
#140
0!
0#
#145
1!
1#
b1001110100001010001010101101011110000100110001101011110110100100 }#
b11 #$
19#
1^#
b1000000001010000100100101101101101111100000101110010000000111 X#
1]#
b1100 \#
b11 Y#
0Z#
0p#
1"$
0f#
#146
b1000000001010000100100101101101101111100000101110010000000111 3#
b1100 7#
0q"
0p"
1o"
1n"
1c"
1b"
0^"
0\"
0["
0X"
0W"
1U"
0Q"
0M"
1K"
1J"
1H"
1F"
1E"
0D"
0A"
1@"
0<"
08"
17"
06"
0+"
0)"
0("
0$"
#150
0!
0#
#155
1!
1#
b1000000001010000100100101101101101111100000101110010000000111 }#
b1100 #$
19#
1^#
b100000110110110001000000100001111000010010100001110110101011011 X#
1]#
b110000 \#
b11 Y#
0Z#
0p#
1"$
0f#
#156
b100000110110110001000000100001111000010010100001110110101011011 3#
b110000 7#
0o"
0n"
1m"
1l"
0a"
1`"
1_"
1]"
1["
1X"
0R"
1O"
1M"
0L"
0K"
0I"
0H"
0F"
1D"
0@"
0?"
0:"
07"
16"
11"
00"
1/"
1."
1,"
1+"
0'"
1%"
#160
0!
0#
#165
1!
1#
b100000110110110001000000100001111000010010100001110110101011011 }#
b110000 #$
19#
1^#
b1010001000101011001100010111000111011010010110001000010100101011 X#
1]#
b11000000 \#
b11 Y#
0Z#
0p#
1"$
0f#
#166
b1010001000101011001100010111000111011010010110001000010100101011 3#
b11000000 7#
0m"
0l"
1k"
1j"
0_"
1^"
0]"
0X"
0V"
0U"
1P"
1H"
1G"
0B"
1?"
1>"
1;"
17"
13"
01"
10"
0/"
0,"
0+"
1*"
1&"
0%"
1$"
#170
0!
0#
#175
1!
1#
b1010001000101011001100010111000111011010010110001000010100101011 }#
b11000000 #$
19#
1^#
b1000111011111000110110001100010010100110001101001100000111100001 X#
1]#
b11 \#
b11 Y#
0Z#
0p#
1"$
0f#
#176
b1000111011111000110110001100010010100110001101001100000111100001 3#
b11 7#
1q"
1p"
0k"
0j"
0b"
0`"
1]"
1\"
0Y"
1U"
1Q"
0P"
1N"
0M"
1I"
0H"
0G"
1F"
0E"
0C"
1A"
0?"
0>"
1<"
0;"
18"
06"
15"
14"
03"
02"
1/"
1-"
1,"
1)"
1("
0&"
#180
0!
0#
#185
1!
1#
b1000111011111000110110001100010010100110001101001100000111100001 }#
b11 #$
19#
1^#
b1101000101001010111101111111011111101100100110000000101111 X#
1]#
b1100 \#
b11 Y#
1Z#
0p#
1"$
0f#
#186
b1101000101001010111101111111011111101100100110000000101111 3#
b1100 7#
15#
0q"
0p"
1o"
1n"
1b"
1a"
1`"
0]"
0\"
0["
1V"
0T"
1R"
0Q"
1L"
1K"
1H"
1G"
0F"
1E"
1C"
1B"
1@"
1?"
1;"
1:"
07"
16"
05"
04"
13"
11"
00"
0/"
0."
0,"
1+"
0)"
0("
0$"
1h"
#190
0!
0#
#195
1!
1#
b1101000101001010111101111111011111101100100110000000101111 }#
b1100 #$
1!$
19#
1^#
b0 X#
0]#
b0 \#
b0 Y#
0Z#
0p#
1"$
1v#
1,#
18!
#196
b0 3#
08#
b0 7#
b0 4#
05#
0r"
0g"
0f"
0o"
0n"
0c"
0b"
0a"
0`"
0^"
0V"
0U"
0R"
0O"
0N"
0L"
0K"
0J"
0I"
0H"
0G"
0E"
0D"
0C"
0B"
0A"
0@"
0?"
0="
0<"
0;"
0:"
08"
06"
03"
01"
0-"
0+"
0*"
0h"
#200
0!
0#
#205
1!
1#
1Q#
b0 }#
0$$
b0 #$
b0 ~#
0!$
19#
1^#
1O#
1*#
15!
#210
0!
0#
#215
1!
1#
1t#
19#
1^#
0v#
0f#
0O#
0,#
0*#
08!
05!
#220
0!
0#
#225
1!
1#
0Q#
0t#
19#
1^#
0p#
0f#
#230
0!
0#
#235
1!
1#
19#
1^#
0p#
0f#
#240
0!
0#
#245
1!
1#
19#
1^#
0p#
0f#
#250
0!
0#
#255
1!
1#
19#
1^#
0p#
0f#
#260
0!
0#
#265
1!
1#
19#
1^#
0p#
0f#
#270
0!
0#
#275
1!
1#
19#
1^#
0p#
0f#
#280
0!
0#
#285
1!
1#
19#
1^#
0p#
0f#
#290
0!
0#
#295
1!
1#
19#
1^#
0p#
0f#
#300
0!
0#
#305
1!
1#
19#
1^#
0p#
0f#
#310
0!
0#
